<svg width="12" height="12" xmlns="http://www.w3.org/2000/svg">
  <path fill-rule="evenodd" clip-rule="evenodd" d="M6 12A6 6 0 106 0a6 6 0 000 12zM4.28 3.22a.75.75 0 00-1.06 1.06l4.5 4.5a.75.75 0 001.06-1.06l-4.5-4.5z" fill="#000"/>
</svg>
