<svg width="12" height="12" xmlns="http://www.w3.org/2000/svg">
  <path fill-rule="evenodd" clip-rule="evenodd" d="M6 12A6 6 0 106 0a6 6 0 000 12zM3 5a1 1 0 000 2h6a1 1 0 100-2H3z" fill="#000"/>
</svg>
