<svg width="12" height="12" xmlns="http://www.w3.org/2000/svg">
  <path fill-rule="evenodd" clip-rule="evenodd" d="M6 12A6 6 0 106 0a6 6 0 000 12zm-.629-8.42a2.5 2.5 0 011.45.059.75.75 0 00.493-1.417 4 4 0 102.464 5.092.75.75 0 10-1.417-.493 2.5 2.5 0 11-2.99-3.24z" fill="#000"/>
</svg>
